<?xml version="1.0" encoding="utf-8"?>
<!-- Generator: Adobe Illustrator 16.0.0, SVG Export Plug-In . SVG Version: 6.00 Build 0)  -->
<!DOCTYPE svg PUBLIC "-//W3C//DTD SVG 1.1//EN" "http://www.w3.org/Graphics/SVG/1.1/DTD/svg11.dtd">
<svg version="1.1" id="Layer_1" xmlns="http://www.w3.org/2000/svg" xmlns:xlink="http://www.w3.org/1999/xlink" x="0px" y="0px"
	 width="56.69px" height="56.69px" viewBox="0 0 56.69 56.69" enable-background="new 0 0 56.69 56.69" xml:space="preserve">
<line fill="#545054" stroke="#666666" stroke-width="6" stroke-miterlimit="10" x1="7.061" y1="15.89" x2="49.63" y2="15.806"/>
<line fill="#545054" stroke="#666666" stroke-width="6" stroke-miterlimit="10" x1="7.061" y1="27.895" x2="49.63" y2="27.811"/>
<line fill="#545054" stroke="#666666" stroke-width="6" stroke-miterlimit="10" x1="7.061" y1="39.91" x2="49.63" y2="39.826"/>
</svg>
