<?xml version="1.0" encoding="utf-8"?>
<!-- Generator: Adobe Illustrator 16.0.0, SVG Export Plug-In . SVG Version: 6.00 Build 0)  -->
<!DOCTYPE svg PUBLIC "-//W3C//DTD SVG 1.1//EN" "http://www.w3.org/Graphics/SVG/1.1/DTD/svg11.dtd">
<svg version="1.1" id="Layer_1" xmlns="http://www.w3.org/2000/svg" xmlns:xlink="http://www.w3.org/1999/xlink" x="0px" y="0px"
	 width="85.04px" height="85.04px" viewBox="0 0 85.04 85.04" enable-background="new 0 0 85.04 85.04" xml:space="preserve">
<path fill="#FFFFFF" d="M42.298,0.128C18.911,0.128,0,19.132,0,42.572c0,23.534,18.911,42.514,42.298,42.514
	c23.364,0,42.333-18.98,42.333-42.514C84.632,19.132,65.662,0.128,42.298,0.128z M43.391,20.136c2.185,0,4.278,0.234,6.324,0.84
	c1.696,0.561,3.3,1.238,4.835,2.195c0.418,0.256,0.837,0.56,1.255,0.957c0.372,0.303,1.023,0.84,1.372,1.167
	c0.396,0.303,1.186,0.935,1.558,1.331c1.79,1.541,3.068,3.596,4.139,5.768c0.79,1.727,1.301,3.595,1.673,5.486
	c0.023,0.373,0.187,0.77-0.162,1.167c-1.047,0.093-2.069,0.093-3.092,0.164c-0.372,0.069-0.512,0-0.559-0.397
	c-0.465-3.595-1.93-6.724-4.37-9.292c-3.534-3.852-7.974-5.719-13.205-5.58c-0.116,0-0.233,0-0.604,0
	c-0.093-1.074-0.093-2.241-0.139-3.432C42.647,20.136,43.042,20.136,43.391,20.136z M50.412,31.623
	c-2-1.401-4.255-2.102-6.696-2.031c-0.418,0-0.511-0.07-0.558-0.467c0-0.958-0.116-1.867-0.233-2.802
	c0-0.327,0.094-0.397,0.373-0.397c3.905-0.164,7.346,1.098,10.369,3.595c2.859,2.499,4.602,5.626,5.184,9.363
	c0.07,0.466-0.047,0.63-0.488,0.63c-0.93,0-1.813,0.094-2.743,0.257c-0.278,0-0.396-0.094-0.419-0.421
	C54.735,36.058,53.085,33.49,50.412,31.623z M53.341,39.607c0,0.303-0.093,0.303-0.326,0.303c-1.046,0.07-2.068,0.233-3.208,0.304
	c-0.418-3.059-2.696-5.16-5.718-5.23c-0.303,0-0.419,0-0.419-0.327c-0.069-0.91-0.14-1.868-0.279-2.824
	c0-0.28,0.047-0.374,0.325-0.374C48.226,31.132,52.853,35.055,53.341,39.607z M65.941,56.16c-0.372,4.926-4.092,7.447-8.509,8.615
	c-0.977,0.303-1.953,0.303-2.976,0.303c-1.674,0-3.278-0.303-4.882-0.794c-10.741-3.128-18.784-9.828-25.293-18.724
	c-2.465-3.386-4.696-6.817-5.486-10.973c-0.86-4.997,0.558-9.222,4.277-12.654c1.162-1.098,4.742-1.564,6.184-0.864
	c0.512,0.233,0.86,0.677,1.116,1.26c1.348,3.199,2.673,6.421,3.999,9.619c0.279,0.607,0.14,1.238-0.139,1.868
	c-0.675,1.471-1.767,2.639-2.906,3.899c-0.814,0.84-0.86,1.634-0.233,2.661c3.812,6.327,9.043,10.95,15.878,13.705
	c1.068,0.443,1.836,0.28,2.51-0.561c1.162-1.424,2.371-2.848,3.441-4.319c0.744-1.004,1.581-1.144,2.627-0.677
	c2.301,1.005,4.533,2.102,6.811,3.199c0.513,0.232,1,0.442,1.512,0.677C66.173,53.592,66.126,53.592,65.941,56.16z"/>
</svg>
